Categories:System
License:Apache-2.0
Web Site:https://github.com/farmerbb/Taskbar/blob/HEAD/README.md
Source Code:https://github.com/farmerbb/Taskbar
Issue Tracker:https://github.com/farmerbb/Taskbar/issues

Name:Taskbar
Auto Name:${appName}
Summary:Use a start menu to access apps
Description:
Puts a start menu and recent apps tray on top of your screen accessible at any
time, increasing your productivity and turning your Android tablet or phone into
a real multitasking machine.
.

Repo Type:git
Repo:https://github.com/farmerbb/Taskbar

Build:1.1.8,54
    commit=b3131f37ac75814fffb1295434fca8e9c1e0aacd
    subdir=app
    gradle=yes

Build:1.1.9,56
    commit=d344934231bdd0587474a3249aca5302db8708ea
    subdir=app
    gradle=yes

Build:1.1.9,57
    commit=055730f44f68824fba0bd10a6eb2f916476ebe7f
    subdir=app
    gradle=yes

Build:1.1.10,61
    commit=cd7ffd8c6193d2ab3c0a8a2dd032a33437793867
    subdir=app
    gradle=yes

Build:1.1.10,65
    commit=e276f1c1a196c2a06fb1bc13a60469428bfa6294
    subdir=app
    gradle=yes

Build:1.1.10,67
    commit=8583d5a605544b536de1a1e47682c4be335a0e50
    subdir=app
    gradle=yes

Build:1.2,68
    commit=0b5b23a7016d7826e62f3ee5fb28331f0e6459a1
    subdir=app
    gradle=free

Build:1.2.1,72
    commit=189cdd7226cb2cf83f88a7cea79a4476546f7405
    subdir=app
    gradle=free

Build:2.0,75
    commit=08e175e2cf01fb03d1f5a48afb23204110c2c37c
    subdir=app
    gradle=free

Build:2.0,76
    commit=7be39e31967f876a8dc79bb6f0b5d265e630b35f
    subdir=app
    gradle=free

Build:2.0.1,78
    commit=832392944ea7c9b72e3d19cd333f7ffcca40d416
    subdir=app
    gradle=free

Build:2.0.2,80
    commit=411837b6130a6d1cb10e3bd596890c609f880f62
    subdir=app
    gradle=free

Build:2.0.3,82
    commit=bd68d19abc4e0f27b216be209941efd881886d2e
    subdir=app
    gradle=free

Build:2.0.3,84
    commit=c2cd2863137ad6a36d634fc6890e8b59f71fbeb4
    subdir=app
    gradle=free

Build:2.0.4,86
    commit=dd1ab4204165ecf6dcc47dbec94805689d869fbb
    subdir=app
    gradle=free

Build:2.1,89
    commit=64b2e87d6f4a924eaf66bbfd5d7f07a89469d26e
    subdir=app
    gradle=free

Build:2.1,90
    commit=6c8ef0d6617e93d711859c51003ace1755fc2437
    subdir=app
    gradle=free

Build:2.1.1,91
    commit=f77e98d1210043ba8823341cc80b0bcce7540625
    subdir=app
    gradle=free

Build:2.1.2,92
    commit=b7cb1f4c609b887d3b4c0e24652f6ffc2ed2f73d
    subdir=app
    gradle=free

Build:2.1.2,95
    commit=e05c185d7038d07ddb6ca0625ae86534e82b57b2
    subdir=app
    gradle=free

Build:2.1.3,98
    commit=c80bdb245002323e57d9d4e3edd609efa6406213
    subdir=app
    gradle=free

Build:2.1.3,99
    commit=ebcb3cfedc35c1b397b3d6587bb0ac3206c50c5e
    subdir=app
    gradle=free

Build:2.1.4,100
    commit=82a2130ebbfad4bbf2af97d81eb7de775e71b5ba
    subdir=app
    gradle=free

Build:2.1.5,101
    commit=eef29a972b92af2a5f843845ff11972062b854bd
    subdir=app
    gradle=free

Build:3.0,103
    commit=75beadfbb5c6046504844fc8815ab5b2d3892c33
    subdir=app
    gradle=free

Build:3.0.1,104
    commit=c333ee55216b85d8b457748a4bc63b53bcc82053
    subdir=app
    gradle=free

Build:3.0.2,106
    commit=7f9f5c17b41bdc8308c7628e91bac1447e11f938
    subdir=app
    gradle=free

Build:3.0.2,107
    commit=582ebc5335130eb1022754183125a4086a657d0d
    subdir=app
    gradle=free

Build:3.0.3,109
    disable=snapshot dependency
    commit=ffd2d7fd676507219dbf0f3104ea50b35dd3c9ed
    subdir=app
    gradle=free

Build:3.0.4,110
    commit=47af933888d76084ae85c5a19577df31fe845ae4
    subdir=app
    gradle=free

Build:3.0.4,112
    commit=22b71650e2e40ebf55d926f400da3bfe95785563
    subdir=app
    gradle=free

Build:3.0.5,113
    commit=2747aedf72446e4c9a6b3ca4ba919778c2cc7927
    subdir=app
    gradle=free

Build:3.0.5,115
    commit=b19682f9fbac1a7813cd0705e5f2b07ab72cf809
    subdir=app
    gradle=free

Build:3.0.6,116
    commit=dd87fafb98aee9f4e3782cc54a2d2bf51eb23997
    subdir=app
    gradle=free

Build:3.0.6,117
    commit=ee067c0f0a54305471d21aaea447987767102033
    subdir=app
    gradle=free

Build:3.0.7,119
    commit=51725fa26e995cd34b7a558a94450fa9d091ae39
    subdir=app
    gradle=free

Build:3.0.7,120
    commit=ffafbb6020eefbefda757bddc1e84b6fed7597be
    subdir=app
    gradle=free

Build:3.0.7,122
    commit=8e01b77ddc5268b12e1fe990bf7913feca8dcac9
    subdir=app
    gradle=free

Build:3.1,123
    commit=384a1a4a347c75985bdc332caac0dc6816f051a6
    subdir=app
    gradle=free

Build:3.1,125
    commit=f0c27b9ea3c9c7aadb66c2c014fba7020b80f4fe
    subdir=app
    gradle=free

Build:3.1,126
    commit=627318e4ab9f996499b66fdbd7baea7c8529b0fb
    subdir=app
    gradle=free

Build:3.1.1,128
    commit=2b921e719217bef62e65c0bb75d3cbc43db792e6
    subdir=app
    gradle=free

Build:3.1.1,131
    commit=982c37b16ed36766a0d96b0a06a0c2ee7825d148
    subdir=app
    gradle=free

Build:3.2,135
    commit=a4e28fd856a3dc2cd2ebcf47095033c43b41c2f2
    subdir=app
    gradle=free

Build:3.2,137
    commit=79039c173a4aad49f2659b41579a8931e2872e9c
    subdir=app
    gradle=free

Build:3.3,138
    commit=58ac8bf5445b867b10d6b319d2589b8f4ec3c349
    subdir=app
    gradle=free

Build:3.3.1,139
    commit=295f54df44058415a16604774aa9fdc92a788846
    subdir=app
    gradle=free

Build:3.3.2,141
    commit=d8160631bb20f26644499a1188d10860607d28bf
    subdir=app
    gradle=free

Build:3.3.2,142
    commit=2a1e1475ed40209bd963731d0334a5d202a3de3f
    subdir=app
    gradle=free

Build:3.3.3,144
    commit=8d812f8a1396502fb21fa20fbc0914624363d1fa
    subdir=app
    gradle=free

Build:3.4,147
    commit=6d3240ecba415804d2426a3e1e5021dcc271a6e4
    subdir=app
    gradle=free
    prebuild=sed -i -e 's,url "https://maven.google.com",url "https://jitpack.io",g' build.gradle ../build.gradle

Build:3.4,148
    commit=933c82684b2406bf1a4d8f88dac7094b2fcda15e
    subdir=app
    gradle=free
    prebuild=sed -i -e 's,url "https://maven.google.com",url "https://jitpack.io",g' build.gradle ../build.gradle

Build:3.4.1,149
    commit=d5e91e838b267b0ebbb9772ff7e77e906892ab84
    subdir=app
    gradle=free
    prebuild=sed -i -e 's,url "https://maven.google.com",url "https://jitpack.io",g' build.gradle ../build.gradle

Build:3.4.1,150
    commit=ce0c14145b1aa85b34423c7d828c21fb8a634b6d
    subdir=app
    gradle=free
    prebuild=sed -i -e 's,url "https://maven.google.com",url "https://jitpack.io",g' build.gradle ../build.gradle

Build:3.6,155
    commit=7e76370cddcb5b99db9a0a33ffcd73fb642a9aa2
    subdir=app
    gradle=free

Auto Update Mode:None
Update Check Mode:RepoManifest
Current Version:3.6.3
Current Version Code:161
